Overview,,
,,
,,
,,
Basic Info,,
Dataset Information,,MRLEye
Overview,Publisher,Media Research Lab
Basic information about the Dataset which is published and searchable on the Marketplace.,Short Name,MRLEye
,Long Name,Media Research Lab Eye Dataset
,Keywords,Pupil detection Object detection Shape analysis Geodesic distance
,Summary Image,http://mrl.cs.vsb.cz/data/eyedataset/mrlEyes_2018_01.zip
,Overview,"The MRL Eye dataset were collected from 37 different persons (33 men and 4 women). The samples of the MRL Eye images were collected from subjects, some of them were wearing glasses. The images were captured under three reflection modes based on the size of reflections (none, small, and high), bad and good lighting using different sensors like RealSense, IDS, and Aptina. Images are in 640 x 480, 1280 x 1024 and 752 x 480 resolution"
,Link to Paper,https://link.springer.com/chapter/10.1007/978-3-030-03801-4_38
,Link to Website,http://mrl.cs.vsb.cz/eyedataset
,Size of Data,"475.7 MB for 84,938 items"
Content,,
Dataset Information,,Dataset
General,Name,MRL Eye Dataset
Basic information about the data resource.,Date,2018
,# of Samples,"84,938 items"
,Sample Resolution,"640 x 480, 1280 x 1024 and 752 x 480 resolution"
,Sample Frame Rate (if available),"The dataset samples are images and therefore frame rate is not applicable.
"
,Size,475.7 MB
Raw Data,Image,Yes
"Describe the image, video, audio or any other raw data available.",Video,No
,Audio,No
,Text,No
,Sensor,No
,Other,No
Meta-Data,Subject,No
Describe other meta-data that was collected such as from other sensors.,Sensor,No
,Physiological,No
,Other,No
Annotations,Annotations,Yes
Describe the annotations associated with the raw Data.,Annotation Formats,Yes
,Data Model,No
Organization,File Organization,No
Describe the organization of the files and data.,Data Naming Format,Yes
Resources,Source Code,Unknown
Describe any other resources.,Other,
,,
General,,
Publication Info,,
Publication,Title,Pupil Localization Using Geodesic Distance
Describe the publication where the dataset has been used and described.,Conference,International Symposium on Visual Computing ISVC 2018: Advances in Visual Computing
,Authors,Radovan Fusek
,Date Published,2018
,License Type,N/A
,Abstract,"The main contributions of the presented paper can be summarized as follows. Firstly, we introduce a unique and robust dataset of human eyes that can be used in many detection and recognition scenarios, especially for the recognition of driver drowsiness, gaze direction, or eye-blinking frequency. The dataset consists of approximately 85,000 different eye regions that were captured using various near-infrared cameras, various resolutions, and various lighting conditions. The images are annotated into many categories. Secondly, we present a new method for pupil localization that is based on the geodesic distance. The presented experiments show that the proposed method outperforms the state-of-the-art methods in this area."
,Citation,"Fusek R. (2018) Pupil Localization Using Geodesic Distance. In: Bebis G. et al. (eds) Advances in Visual Computing. ISVC 2018. Lecture Notes in Computer Science, vol 11241. Springer, Cham. https://doi.org/10.1007/978-3-030-03801-4_38"
Publication Links,Project Web Page,http://mrl.cs.vsb.cz
Describe the publication links to additional information about the publication.,Project Image Link,http://mrl.cs.vsb.cz/eyedataset
,Git Link,N/A
,Video Link,N/A
,Paper PDF Link,https://link.springer.com/chapter/10.1007/978-3-030-03801-4_38#authorsandaffiliations
,Project Image Link,http://mrl.cs.vsb.cz/images/eyedataset/eyedataset01.png
,License Link,Public
Other,,
Relevant Challenges,Challenges,"Gaze detection
Human–computer interaction techniques
Medical diagnoses
Psychological studies
Computer vision
Automotive danger detection"
Describe which Challenges this Dataset can be used for.,,
Assumptions of Use,Assumptions of Use,"Design approaches for building a robust eye tracker using this large-scale dataset such as convolutional neural networks (CNNs) in computer vision. Given enough data, we can learn eye tracking end-to-end without the need to include any manually engineered features, such as head pose. Specifically, by providing the (1) image of the face together with its location in the image (termed face grid), and (2) the image of the eyes. We believe that using the ML model can infer the head pose relative to the camera, and infer the pose of the eyes relative to the head. By combining this information, the model can infer the location of gaze easily."
Describe any assumptions when using this Dataset.,(Training or Evaluation),
,Data Collection Environment,Gathering through crowdsourcing using iPad and iPhone and selfie mode
,Bias,"Its only bias about the Gender and not about the glasses, close, open, no reflection, low reflection, high reflection, bad light, good light, sensor RS300, sensor IDS, sensor Aptina
"
Regulation,EU GDPR,N/A
Describe the publication where the dataset has been used and described.,,
,EU AI Act,N/A
,,
,,
Disclaimer and Acknowledgements,Disclaimer,N/A
Any disclaimers or acknowledgement from the publication.,Acknowledgements,"This work was partially supported by Grant of SGS No. SP2018/42, VŠB - Technical University of Ostrava, Czech Republic.
"
,,
Technical,,
Technical Description,,
Dataset Information,,
Size,Date,2018
Describe the size of the Dataset.,# of Samples,"84,898 images"
,# of Identities,37 different persons (33 men and 4 women)
,Sample Resolution,"640 x 480 resolution, 1280 x 1024 resolution, and 752 x 480 resolution)"
,Sample Frame Rate (if available),"The dataset samples are images and therefore frame rate is not applicable.
"
,Size,475.7 MB
Data Collection,Collection Environment,"This dataset contains infrared images in low and high resolution, all captured in various lightning conditions and by different devices"
Describe parameters around data collection.,Collection Device,"Intel RealSense RS 300 sensor with 640 x 480 resolution, IDS Imaging sensor with 1280 x 1024 resolution, and Aptina sensor with 752 x 480 resolution"
,Device Characteristics,"This dataset contains infrared images in low and high resolution, all captured in various lightning conditions and by different devices while people are driving with installed sensors in front of them.
"
,"(Angle, Distance, Format)",
,Data Distribution,"The samples of the MRL Eye images were collected from subjects, some of them were wearing glasses. The images were captured under three reflection modes based on the size of reflections (none, small, and high), bad and good lighting using different sensors like RealSense, IDS, and Aptina."
,Data Collection Requirements,"Variation in gender and people who are driving 
"
Annotations,Annotation Requirements,"Gender, glasses, eye state, reflections [0 - none, 1 - small, 2 - big], lighting conditions [0 - bad, 1 - good], sensor ID [01 - RealSense, 02 - IDS, 03 - Aptina]
"
Describe parameters around the annotations.,Quality Requirements,"Quality of the images captured by mentioned sensors is enough for further training 
"
Content and Resources,,
Dataset Information,,
Raw Data,Image,Images (jpg) of faces 480*640
"Describe the image, video, audio or any other raw data available.",Video,
,Audio,
,Text,
,Sensor,
,Other,
Meta-Data,Subject,
Describe other meta-data that is available such as from other sensors or describing subjects.,Sensor,
,Physiological,
,Other,
Annotations,Annotations,"Gender, glasses, eye state, reflections, lighting conditions, sensor ID"
Describe the annotations associated with the raw Data.,Annotation Formats,"gender [0 - man, 1 - woman], glasses [0 - no, 1 - yes] eye state [0 - closed, 1 - open], reflections [0 - none, 1 - small, 2 - big], lighting conditions [0 - bad, 1 - good], sensor ID [01 - RealSense, 02 - IDS, 03 - Aptina]"
,Data Model,N/A
Organization,File Organization,Dataset layout can be found here http://mrl.cs.vsb.cz/data/eyedataset/mrlEyes_2018_01.zip
Describe the organization of the files and data.,Data Naming Format,Dataset naming format can be found here http://mrl.cs.vsb.cz/data/eyedataset/pupil.txt
Resources,Source Code,N/A
Describe any other resources provided.,Other,N/A
,,
Licensing,,
Technical Description,,
Dataset Information,,
Contact,Licensing Contact Name,N/A
Describe who to contact regarding the Dataset.,Licensing Contact Email,N/A
,Technical Contact Name,N/A
,Technical Contact Email,http://mrl.cs.vsb.cz//people/fusek/
,Other Contact Name,Radovan Fusek
,Other Contact Email,N/A
License Types,Commercial,No
Describe the license types possible with the Dataset.,Open-Source Commercial,No
,Open Source Non-Commercial,No
,Academic Research,Yes
Request Access Instructions Describe how to access the Dataset.,Steps,Can be downloaded from here : http://mrl.cs.vsb.cz/eyedataset
,Link to Default License,N/A
,,
Data Model,,
Technical Description,,
Dataset Information,,
Data Model(s),Data Format Definition(s),"subject ID: xxx
image number: xxx
gender: 0 – male, 1 - famale
glasses: 0 – no, 1 - yes
eye state: 0 – close, 1 - open
reflections: 0 – none, 1 – low, 2 - high
lighting conditions/image quality: 0 – bad, 1 - good
sensor type: 01 - RealSense SR300 640x480, 02 - IDS Imaging, 1280x1024"
Describe the Data Model(s) of the Dataset including any Data Format Definitions and Samples.,Data Model(s) (Python),Under development by our team
,Downloadable Sample(s),http://mrl.cs.vsb.cz/images/eyedataset/eyedataset01.png